C:\MX15-Controller\commons\src\main\java\snc\controller\TurretController.java
C:\MX15-Controller\commons\src\main\java\snc\controller\ControllerWindow.java
C:\MX15-Controller\commons\src\main\java\snc\controller\GUI.java
C:\MX15-Controller\commons\src\main\java\snc\controller\Main.java
C:\MX15-Controller\commons\src\main\java\snc\controller\GUICommandPopulator.java
C:\MX15-Controller\commons\src\main\java\snc\controller\IControllerBase.java
C:\MX15-Controller\commons\src\main\java\snc\controller\Controller.java
